RmecabKo update to version 0.1.6.1
…
wing_book <- data_frame(book = "날개",
                        author = "이상",
                        text = wing) %>% 
  mutate(id = row_number())

wing_bigrams <- wing_book %>% 
  unnest_tokens(bigram, text, token = token_ngrams, n = 2)

wing_bigrams

## # A tibble: 6,008 x 4
##     book author    id            bigram
##    <chr>  <chr> <int>             <chr>
##  1  날개   이상     1           박제 되
##  2  날개   이상     1           되 버린
##  3  날개   이상     1         버린 천재
##  4  날개   이상     1           천재 아
##  5  날개   이상     1             아 나
##  6  날개   이상     1           나 이런
##  7  날개   이상     1           이런 때
##  8  날개   이상     1           때 연애
##  9  날개   이상     2 육신 흐느적흐느적
## 10  날개   이상     2   흐느적흐느적 하
## # ... with 5,998 more rows

먼저 bigram을 만들어 보았습니다. 소설 scraping은 rvest로 한 다음, magrittr::extract로 필요한 열만 선택했습니다. 다음, tidytext::unnest_tokens 함수를 활용합니다. 이때, parameter에 token = token_grams, n = 2를 넣어 bigram을 만들도록 합니다. token 하나를 열 하나에 배치(one-token-per-row)하고 metadata를 추가하는 tidy text format을 따르고 있음을 확인할 수 있습니다.

wing_bigrams %>% 
  count(bigram, sort = TRUE)

## # A tibble: 4,814 x 2
##     bigram     n
##      <chr> <int>
##  1   것 이    46
##  2   수 없    29
##  3   내 방    25
##  4 내 아내    24
##  5 아내 방    19
##  6   이 나    19
##  7   것 같    18
##  8   한 번    16
##  9   나 내    15
## 10   것 다    14
## # ... with 4,804 more rows
dplyr::count를 사용해서 수를 세 보았습니다. 단편이라 단어 수가 많지 않네요. 역시나 “것 이”, “수 없” 등의 단어가 많이 나오는 것을 알 수 있습니다. 흔하지만 의미를 파악하기 힘든 단어들(불용어)을 제외해서 다시 갯수를 세볼게요.

bigrams_separated <- wing_bigrams %>% 
  separate(bigram, c("word1", "word2"), sep = " ")

bigrams_filtered <- bigrams_separated %>% 
  filter(!word1 %in% stopwords_ko$word) %>% 
  filter(!word2 %in% stopwords_ko$word)

bigrams_counts <- bigrams_filtered %>% 
  count(word1, word2, sort = TRUE)

bigrams_counts

## # A tibble: 2,345 x 3
##       word1  word2     n
##       <chr>  <chr> <int>
##  1     아내     방    19
##  2     이불     속    13
##  3       돈     놓     8
##  4     아내   내객     7
##  5       일     없     7
##  6   그러나   아내     6
##  7 아스피린 아달린     6
##  8       밤     낮     5
##  9       밤   외출     5
## 10     생각     보     5
## # ... with 2,335 more rows

tidyr::separate를 사용해 bigram을 두 단어로 나눈 뒤, 패키지에 새로 추가한 stopwords_ko$word를 포함하지 않는 bigram만을 남깁니다. 소설에서 상상과 시샘의 대상이 되는 공간인 “아내 방”과 그에 대비되는 화자의 위치인 “이불 속”이 가장 많이 등장하는 것을 알 수 있습니다. 낱개 형태소 분석으로는 파악하기 어려운 단어들이죠.

bigrams_united <- bigrams_filtered %>% 
  unite(bigram, word1, word2, sep = " ")

bigrams_united

## # A tibble: 2,599 x 4
##     book author    id            bigram
##  * <chr>  <chr> <int>             <chr>
##  1  날개   이상     1         버린 천재
##  2  날개   이상     2 육신 흐느적흐느적
##  3  날개   이상     2         정신 은화
##  4  날개   이상     2           은화 맑
##  5  날개   이상     2         맑 니코틴
##  6  날개   이상     2           횟배 앓
##  7  날개   이상     2           앓 뱃속
##  8  날개   이상     2         뱃속 스미
##  9  날개   이상     2       스미 머릿속
## 10  날개   이상     2       머릿속 으레
## # ... with 2,589 more rows

위의 불용어 제외 결과를 합쳐서 다시 원래 자료의 형태로 만들어 보았습니다.

wing_book %>% 
  unnest_tokens(trigram, text, token = token_ngrams, n = 3) %>% 
  separate(trigram, c("word1", "word2", "word3"), sep = " ") %>% 
  filter(!word1 %in% stopwords_ko$word,
         !word2 %in% stopwords_ko$word,
         !word3 %in% stopwords_ko$word) %>% 
  count(word1, word2, word3, sort = TRUE)

## # A tibble: 1,654 x 4
##       word1    word2 word3     n
##       <chr>    <chr> <chr> <int>
##  1     아내       돈    놓     3
##  2 가지각색   화장품    병     2
##  3     끼니 가지런히  놓여     2
##  4     내객     아내    돈     2
##  5     바지     포켓    속     2
##  6   벙어리     변소    갖     2
##  7     생각     필요    없     2
##  8     아내       방  통과     2
##  9     아내   소중히  생각     2
## 10     아내       손    쥐     2
## # ... with 1,644 more rows
…
부정어 “안”이 먼저 오는 bigram입니다. “안 되”, “안 될”, “안 드”가 그나마 반복적으로 등장하는 bigram입니다. 주인공의 상태 변화에 대한 부정적 인식이 소설 전반에 나타나는 것과 연결지어 볼 수 있겠네요.

bigrams_separated %>% 
  filter(word1 == "없") %>% 
  count(word1, word2, sort = TRUE)

## # A tibble: 48 x 3
##    word1  word2     n
##    <chr>  <chr> <int>
##  1    없     것    10
##  2    없     나     9
##  3    없   그러     3
##  4    없 그러나     3
##  5    없     내     3
##  6    없     않     3
##  7    없   그냥     2
##  8    없   만일     2
##  9    없   아내     2
## 10    없   의문     2
## # ... with 38 more rows
…
