시진은 뛰고, 모연은 건넨다 - "태양의 후예" 대본 텍스트 분석
…
example_text

## # A tibble: 40 x 2
##        word                                                                                                                     text
##       <chr>                                                                                                                    <chr>
##  1   건네다                                                       고반장 다가와 모연에게 차 키 건네며 씁쓸한 표정으로 복도 걷는 시진
##  2     떨다                식당 나가는 아구스 일행 따라 점점이 멀어지는 시진과 대영 보던 모연 떨고 있는 파티마 등 가 만가만 쓸어주고
##  3 문지르다                                                         고개 푹 숙인 채 괜히 손에 묻은 피 문질러 지우고 서 있는 모연이다
##  4   울리다                                                           복도 걸어가던 모연 쩌렁쩌렁 울리는 자신의 목소리에 굳어 서는데
##  5     굴다                                                                                             그 위로 시작되는 모연의 군가
##  6   꺼지다                                       나머지 텐트들 다 불 꺼져 있고 모연의 텐트에만 불빛 흐릿한데 그 순간 탁 꺼지는 불빛
##  7     넓다                  그런 모연의 표정에서 화면 넓어지면 조금 떨어진 곳에서 역시 추도식 풍경을 바라보고 서 있는 남자 아구스다
##  8   미치다                                                                                           미친 듯이 달려 나가는 모연이고
##  9     믿다                                                 믿을 수 없어서 받을 생각도 못하고 그저 덜덜 떨며 바라만 보고 선 모연인데
## 10   보내다 당신 그렇게 보내고 내 맘이 얼마나 불편했는지 짐작이 가나 혹시 화난 얼굴로 모연 보다가 멋지게 확 돌아서 저벅저벅 가버리는
## # ... with 30 more rows
…
