한국 가요 50년사, 가사 분석
…
실질형태소 빈도 상위 20개와 wordcloud입니다. 당연히 “사랑”이 제일 많네요. “없(다)”, “말”이 뒤를 이어요. ‘없다’는 부정어에 공통적으로 등장하는 형태소니, ‘말’이 흥미롭네요. 전해야 했던 무언가, 말해야 했던 무언가가 중요한 의미를 차지하고 있는 것 같아요.

RmecabKo::token_words는 실질 형태소만 추출하여 토큰 형태로 제공합니다. tidytext::unnest_tokens의 token parameter에 입력해서 Mecab-Ko를 통한 형태소 분석 후 이를 tidy 형태의 자료로 만든 것을 보실 수 있어요.

lyricsWords %>% 
  count(word, sort = TRUE)

wordsByDecade <- lyricsWords %>% 
  count(decade, word, sort = TRUE) %>% 
  ungroup()

wordsByDecade

## # A tibble: 14,749 x 2
##     word     n
##    <chr> <int>
##  1    나 14490
##  2    내 11833
##  3    너 11015
##  4  사랑 10847
##  5    있  7742
##  6    이  7007
##  7    없  6918
##  8    말  6392
##  9  그대  5732
## 10    수  5376
## # ... with 14,739 more rows

## # A tibble: 31,249 x 3
##    decade  word     n
##     <dbl> <chr> <int>
##  1   2000    나  4396
##  2   1990    나  4317
##  3   2000    내  4032
##  4   2000  사랑  3791
##  5   2000    너  3562
##  6   1990    너  3403
##  7   2010    나  3353
##  8   2010    내  3288
##  9   2010    너  3253
## 10   1990    있  2937
## # ... with 31,239 more rows

다음은 시대별(10년마다) 가사 변화를 분석하기 위해서 자료를 정리하는 과정이예요. 먼저 decade를 만들고 (mutate(decade = floor(year / 10) * 10)) count(decade, word)를 통해 10년마다 가사의 형태소 빈도를 구한 모습입니다.

다음은 tf-idf 값을 구해볼거예요. tf-idf (term frequency - inverse document frequency)는 단어의 빈도와 해당 단어가 등장한 문단 또는 텍스트의 빈도를 결합해서, 단순한 단어 빈도가 단어의 일반 빈도를 따라서 크게 의미없는 단어(위의 ‘나’, ‘너’, ‘있’처럼요) 순서대로 나열되는 것을 피해 해당 텍스트에서의 중요도를 구할 수 있는 방법이예요. tidytext::bind_tf_idf로 간단하게 구할 수 있습니다. 코드를 볼까요?

tfIdf <- wordsByDecade %>% 
  bind_tf_idf(word, decade, n) %>% 
  arrange(desc(tf_idf))

tfIdf

## # A tibble: 31,249 x 6
##    decade     word     n           tf       idf      tf_idf
##     <dbl>    <chr> <int>        <dbl>     <dbl>       <dbl>
##  1   1960   마리아    35 0.0035457400 0.6931472 0.002457720
##  2   1970   목화밭    32 0.0011953679 1.7917595 0.002141812
##  3   1960 마도로스    10 0.0010130686 1.7917595 0.001815175
##  4   1970     얄리    36 0.0013447889 1.0986123 0.001477402
##  5   1960   김일병     8 0.0008104549 1.7917595 0.001452140
##  6   1960 부기우기     8 0.0008104549 1.7917595 0.001452140
##  7   2000       널  1275 0.0078966927 0.1823216 0.001439737
##  8   2010     어머   108 0.0007860319 1.7917595 0.001408380
##  9   2010       널   982 0.0071470680 0.1823216 0.001303065
## 10   1960     천리    11 0.0011143754 1.0986123 0.001224267
## # ... with 31,239 more rows
…
tf-idf 값을 통해 시대별로 중요한 단어를 뽑아보았어요. 60년대는 “마리아”를 놓고 “마도로스”, “김일병”이 다투던 시기였을까요. 70년대의 “얄리”, “가시내”는 80년대의 “현아”와 “아그네스”, “쥴리엣”으로 이름을 바꿉니다. 90년대 이후에는 “너”가 직접 등장하는 것을 볼 수 있어요. 90년대 이후는 다 비슷하냐면 그렇지도 않죠. 일단 2010년대의 “어머”와 “으르렁” (엑소도 엄청나군요)이 있고요. 전체적 정서를 보자면 90년대는 ‘힘든 기억’을 잊고 ‘이제 우리’를 이야기하고 있어요. 2000년대는 ‘힘든 기억’이 ‘미치’게 하고 있군요. ‘이제 제발’ 뭔가를 해야 한다는 것 같아요. 한편 2010년대는 ‘벚꽃’ 아래서 ‘심장’을 ‘주려’나요?

library(widyr)

decadeCors <- wordsByDecade %>% 
  pairwise_cor(decade, word, n, sort = TRUE)

decadeCors

## # A tibble: 30 x 3
##    item1 item2 correlation
##    <dbl> <dbl>       <dbl>
##  1  2010  2000   0.9709446
##  2  2000  2010   0.9709446
##  3  1990  2000   0.9627939
##  4  2000  1990   0.9627939
##  5  2010  1990   0.9313528
##  6  1990  2010   0.9313528
##  7  1970  1980   0.9182174
##  8  1980  1970   0.9182174
##  9  1980  1990   0.8917859
## 10  1990  1980   0.8917859
## # ... with 20 more rows
…
