소설 분석, googleLanguageR 소개
…
tobText <- tobText %>% 
  mutate(id = row_number()) %>% 
  add_column(tobText, magnitude = tobSentiment$value$magnitude, score = tobSentiment$value$score)

str(tobText)

## Classes 'tbl_df', 'tbl' and 'data.frame':    377 obs. of  4 variables:
##  $ value    : chr  "청일전쟁의 총소리는 평양 일경이 떠나가는 듯하더니, 그 총소리가 그치매 사람의 자취는 끊어지고 산과 들에 비린 티끌뿐이라. \n" "평양성의 모란봉에 떨어지는 저녁 볕은 뉘엿뉘엿 넘어가는데, 저 햇빛을 붙들어매고 싶은 마음에 붙들어매지는 못하고 "| __truncated__ "남이 그 모양을 볼 지경이면 저렇게 어여쁜 젊은 여편네가 술 먹고 한길에 나와서 주정한다 할 터이나, 그 부인은 술 "| __truncated__ "무슨 소회가 그리 대단한지 그 부인더러 물을 지경이면 대답할 여가도 없이 옥련이를 부르면서 돌아다니더라. \n" ...
##  $ magnitude: num  0.4 0.8 0.9 0.5 2.5 0.7 0.5 1.3 0.2 0.7 ...
##  $ score    : num  0.4 -0.8 -0.9 -0.5 0 0.7 -0.5 -0.1 -0.2 0.3 ...
##  $ id       : int  1 2 3 4 5 6 7 8 9 10 ...

tobText

## # A tibble: 377 x 4
##                                                                                                                                                                                                                                                                    value
##                                                                                                                                                                                                                                                                    <chr>
##  1                                                                                                                                          "청일전쟁의 총소리는 평양 일경이 떠나가는 듯하더니, 그 총소리가 그치매 사람의 자취는 끊어지고 산과 들에 비린 티끌뿐이라. \n"
##  2 "평양성의 모란봉에 떨어지는 저녁 볕은 뉘엿뉘엿 넘어가는데, 저 햇빛을 붙들어매고 싶은 마음에 붙들어매지는 못하고 숨이 턱에 닿은 듯이 갈팡질팡하는 한 부인이 나이 삼십이 될락말락하고, 얼굴은 분을 따고 넣은 듯이 흰 얼굴이나 인정 없이 뜨겁게 내리쪼이는 가을볕에 얼굴
##  3                                                     "남이 그 모양을 볼 지경이면 저렇게 어여쁜 젊은 여편네가 술 먹고 한길에 나와서 주정한다 할 터이나, 그 부인은 술 먹었다 하는 말은 고사하고 미쳤다, 지랄한다 하더라도 그따위 소리는 귀에 들리지 아니할 만하더라. \n"
##  4                                                                                                                                                           "무슨 소회가 그리 대단한지 그 부인더러 물을 지경이면 대답할 여가도 없이 옥련이를 부르면서 돌아다니더라. \n"
##  5            "“옥련아, 옥련아 옥련아 옥련아, 죽었느냐 살았느냐.  죽었거든 죽은 얼굴이라도 한번 다시 만나 보자.  옥련아 옥련아, 살았거든 어미 애를 그만 쓰이고 어서 바삐 내 눈에 보이게 하여라.  옥련아, 총에 맞아 죽었느냐, 창에 찔려 죽었느냐, 사람에게 밟혀 죽었느냐.
##  6 "하면서 옥련이를 찾으려고 골몰한 정신에, 옥련이보다 열 갑절 스무 갑절 더 소중하게 생각하는 사람을 잃고도 모르고 옥련이만 부르며 다니다가 목이 쉬고 기운이 탈진하여 산비탈 잔디풀 위에 털썩 주저앉았다가 혼자말로 옥련 아버지는 옥련이 찾으려고 저 건너 산 밑으로 가더
##  7       "기다리는 사람은 아니 오고, 인간 사정은 조금도 모르는 석양은 제 빛 다 가지고 저 갈 데로 가니 산빛은 점점 먹장을 갈아붓는 듯이 검어지고 대동강 물소리는 그윽한데, 전쟁에 죽은 더운 송장 새 귀신들이 어두운 빛을 타서 낱낱이 일어나는 듯 내 앞에 모여드는 듯하니,
##  8         "“에그, 깜깜하여라.  이리 가도 길이 없고 저리 가도 길이 없으니 어디로 가면 길을 찾을까.  나는 사나이라 다리 힘도 좋고 겁도 없는 사람이언마는 이러한 산비탈에서 이 밤을 새고 사람을 찾아다니려 하면 이 고생이 이렇게 대단하거든, 겁도 많고 다녀 보지 못하던 여
##  9                                                                               "하는 소리를 듣고 부인의 마음에 난리중에 피란 가다가 부부가 서로 잃고 서로 종적을 모르니 살아 생이별을 한 듯하더니 하늘이 도와서 다시 만나 본다 하여 반가운 마음에 소리를 질렀더라. \n"
## 10                                                                                                                                                                                                  "“여보, 나 여기 있소.  날 찾아 다니느라고 얼마나 애를 쓰셨소.” \n\n"
## # ... with 367 more rows, and 3 more variables: magnitude <dbl>, score <dbl>,
## #   id <int>
…
